<?xml version="1.0" encoding="UTF-8" standalone="no"?>
<svg
   xmlns:dc="http://purl.org/dc/elements/1.1/"
   xmlns:cc="http://creativecommons.org/ns#"
   xmlns:rdf="http://www.w3.org/1999/02/22-rdf-syntax-ns#"
   xmlns:svg="http://www.w3.org/2000/svg"
   xmlns="http://www.w3.org/2000/svg"
   xmlns:sodipodi="http://sodipodi.sourceforge.net/DTD/sodipodi-0.dtd"
   xmlns:inkscape="http://www.inkscape.org/namespaces/inkscape"
   viewBox="0 0 512 512"
   width="512px"
   height="512px"
   version="1.1"
   id="svg5"
   sodipodi:docname="settings.svg"
   inkscape:version="1.0.1 (3bc2e813f5, 2020-09-07)">
  <metadata
     id="metadata11">
    <rdf:RDF>
      <cc:Work
         rdf:about="">
        <dc:format>image/svg+xml</dc:format>
        <dc:type
           rdf:resource="http://purl.org/dc/dcmitype/StillImage" />
      </cc:Work>
    </rdf:RDF>
  </metadata>
  <defs
     id="defs9" />
  <sodipodi:namedview
     pagecolor="#ffffff"
     bordercolor="#666666"
     borderopacity="1"
     objecttolerance="10"
     gridtolerance="10"
     guidetolerance="10"
     inkscape:pageopacity="0"
     inkscape:pageshadow="2"
     inkscape:window-width="1920"
     inkscape:window-height="1007"
     id="namedview7"
     showgrid="false"
     inkscape:zoom="0.58073907"
     inkscape:cx="-30.553879"
     inkscape:cy="395.2407"
     inkscape:window-x="0"
     inkscape:window-y="0"
     inkscape:window-maximized="1"
     inkscape:current-layer="svg5" />
  <g
     id="surface12440223"
     transform="matrix(1.0862813,0,0,1.0868963,-22.201467,-22.236814)">
    <path
       style="fill:#cccccc;fill-opacity:1;fill-rule:nonzero;stroke:none"
       d="m 482.91797,217.30469 -60.51953,-9.89453 c -3.54297,-12.14454 -8.38672,-23.81641 -14.44532,-34.86719 l 35.32813,-50.34766 c 2.85547,-4.0664 2.36328,-9.60547 -1.14844,-13.1289 L 402.30859,69.261719 c -3.55468,-3.542969 -9.14453,-4.003907 -13.21875,-1.0625 L 339.49609,103.84375 C 328.34375,97.679688 316.57031,92.785156 304.35156,89.230469 L 293.79687,28.957031 C 292.9375,24.0625 288.6875,20.480469 283.71094,20.480469 h -56.32032 c -5.01953,0 -9.30078,3.632812 -10.10937,8.589843 l -9.78906,59.945313 c -12.28516,3.535156 -24.08203,8.378906 -35.19532,14.460935 L 122.83984,68.148438 c -4.08593,-2.917969 -9.64843,-2.449219 -13.19921,1.085937 L 69.835938,109.03516 c -3.511719,3.51172 -4.003907,9.04297 -1.144532,13.10937 l 34.804684,49.79688 c -6.195309,11.21093 -11.132809,23.07812 -14.726559,35.42968 L 29.0625,217.3125 C 24.125,218.13281 20.5,222.41406 20.5,227.41016 v 56.32031 c 0,4.96484 3.5625,9.21484 8.449219,10.08594 l 59.707031,10.58984 c 3.574219,12.31641 8.511719,24.18359 14.72656,35.42969 l -35.234372,49.28515 c -2.910157,4.0625 -2.449219,9.64453 1.085937,13.19922 l 39.812505,39.84375 c 3.51171,3.51172 9.05078,4.00391 13.11718,1.14453 l 49.86719,-34.92578 c 11.19141,6.15235 23.01953,11.03906 35.27734,14.58203 l 9.9961,60.01563 c 0.80859,4.92578 5.07812,8.53906 10.08593,8.53906 h 56.32032 c 4.96484,0 9.21484,-3.5625 10.07422,-8.44922 l 10.70312,-60.3125 c 12.27734,-3.61328 24.04297,-8.53125 35.12109,-14.69531 l 50.22657,35.23828 c 4.07812,2.875 9.60547,2.375 13.1289,-1.13672 l 39.8125,-39.84375 c 3.54297,-3.55469 4.00391,-9.15625 1.06641,-13.23047 l -35.82031,-49.73437 c 6.07031,-11.0625 10.89453,-22.75391 14.40625,-34.89844 l 60.60156,-10.64062 c 4.90625,-0.85938 8.46875,-5.1211 8.46875,-10.08594 v -56.32031 c 0.008,-5.01954 -3.625,-9.29688 -8.58203,-10.10547 z M 256,327.67969 c -39.58594,0 -71.67969,-32.09375 -71.67969,-71.67969 0,-39.58594 32.09375,-71.67969 71.67969,-71.67969 39.58594,0 71.67969,32.09375 71.67969,71.67969 0,39.58594 -32.09375,71.67969 -71.67969,71.67969 z m 0,0"
       id="path2" />
  </g>
</svg>
